{
  "version": 1,
  "author": "Anonymous maker",
  "editor": "wokwi",
  "parts": [
    { "type": "wokwi-breadboard", "id": "bb1", "top": -118.2, "left": 22, "attrs": {} },
    { "type": "wokwi-arduino-uno", "id": "uno", "top": 166.79, "left": 248.43, "attrs": {} },
    {
      "type": "wokwi-led",
      "id": "led1",
      "top": -116.4,
      "left": 563.4,
      "rotate": 90,
      "attrs": { "color": "green" }
    },
    {
      "type": "wokwi-resistor",
      "id": "r1",
      "top": -24,
      "left": 537.05,
      "rotate": 90,
      "attrs": { "value": "1000" }
    },
    {
      "type": "wokwi-led",
      "id": "led2",
      "top": -116.4,
      "left": 544.2,
      "rotate": 90,
      "attrs": { "color": "yellow" }
    },
    {
      "type": "wokwi-resistor",
      "id": "r2",
      "top": -24,
      "left": 517.85,
      "rotate": 90,
      "attrs": { "value": "1000" }
    },
    {
      "type": "wokwi-led",
      "id": "led3",
      "top": -116.4,
      "left": 525,
      "rotate": 90,
      "attrs": { "color": "purple" }
    },
    {
      "type": "wokwi-resistor",
      "id": "r3",
      "top": -24,
      "left": 498.65,
      "rotate": 90,
      "attrs": { "value": "1000" }
    },
    {
      "type": "wokwi-led",
      "id": "led4",
      "top": -116.4,
      "left": 505.8,
      "rotate": 90,
      "attrs": { "color": "red" }
    },
    {
      "type": "wokwi-resistor",
      "id": "r4",
      "top": -24,
      "left": 479.45,
      "rotate": 90,
      "attrs": { "value": "1000" }
    },
    {
      "type": "wokwi-led",
      "id": "led5",
      "top": -116.4,
      "left": 486.6,
      "rotate": 90,
      "attrs": { "color": "blue" }
    },
    {
      "type": "wokwi-resistor",
      "id": "r5",
      "top": -24,
      "left": 460.25,
      "rotate": 90,
      "attrs": { "value": "1000" }
    },
    {
      "type": "wokwi-led",
      "id": "led6",
      "top": -116.4,
      "left": 467.4,
      "rotate": 90,
      "attrs": { "color": "orange" }
    },
    {
      "type": "wokwi-resistor",
      "id": "r6",
      "top": -24,
      "left": 441.05,
      "rotate": 90,
      "attrs": { "value": "1000" }
    },
    {
      "type": "wokwi-led",
      "id": "led7",
      "top": -116.4,
      "left": 448.2,
      "rotate": 90,
      "attrs": { "color": "white" }
    },
    {
      "type": "wokwi-resistor",
      "id": "r7",
      "top": -24,
      "left": 421.85,
      "rotate": 90,
      "attrs": { "value": "1000" }
    },
    {
      "type": "wokwi-led",
      "id": "led8",
      "top": -116.4,
      "left": 429,
      "rotate": 90,
      "attrs": { "color": "magenta" }
    },
    {
      "type": "wokwi-resistor",
      "id": "r8",
      "top": -24,
      "left": 402.65,
      "rotate": 90,
      "attrs": { "value": "1000" }
    }
  ],
  "connections": [
    [ "bb1:bn.1", "bb1:tn.1", "blue", [ "v0" ] ],
    [ "bb1:bp.2", "bb1:tp.2", "red", [ "v0" ] ],
    [ "uno:GND.2", "bb1:bn.2", "blue", [ "v0" ] ],
    [ "led3:A", "bb1:51t.a", "green", [ "h0" ] ],
    [ "led2:A", "bb1:53t.a", "green", [ "h0" ] ],
    [ "led1:A", "bb1:55t.a", "green", [ "h0" ] ],
    [ "uno:2", "bb1:55b.j", "green", [ "v14.93", "h467.67" ] ],
    [ "uno:4", "bb1:51b.j", "green", [ "v-0.02", "h448.27" ] ],
    [ "uno:3", "bb1:53b.j", "green", [ "v8.39", "h457.97" ] ],
    [ "uno:5", "bb1:49b.j", "green", [ "v-7.5", "h438.57" ] ],
    [ "led4:A", "bb1:49t.a", "green", [ "h0" ] ],
    [ "uno:6", "bb1:47b.j", "green", [ "v-16.37", "h428.87" ] ],
    [ "led5:A", "bb1:47t.a", "green", [ "h0" ] ],
    [ "led6:A", "bb1:45t.a", "green", [ "h0" ] ],
    [ "led7:A", "bb1:43t.a", "green", [ "h0" ] ],
    [ "led8:A", "bb1:41t.a", "green", [ "h0" ] ],
    [ "uno:7", "bb1:45b.j", "green", [ "v-28.24", "h32.97" ] ],
    [ "led1:C", "bb1:tn.45", "", [ "$bb" ] ],
    [ "led2:C", "bb1:tn.43", "", [ "$bb" ] ],
    [ "led3:C", "bb1:tn.41", "", [ "$bb" ] ],
    [ "r2:1", "bb1:53t.c", "", [ "$bb" ] ],
    [ "r2:2", "bb1:53b.g", "", [ "$bb" ] ],
    [ "r1:1", "bb1:55t.c", "", [ "$bb" ] ],
    [ "r1:2", "bb1:55b.g", "", [ "$bb" ] ],
    [ "r3:1", "bb1:51t.c", "", [ "$bb" ] ],
    [ "r3:2", "bb1:51b.g", "", [ "$bb" ] ],
    [ "r4:1", "bb1:49t.c", "", [ "$bb" ] ],
    [ "r4:2", "bb1:49b.g", "", [ "$bb" ] ],
    [ "led4:C", "bb1:tn.40", "", [ "$bb" ] ],
    [ "r5:1", "bb1:47t.c", "", [ "$bb" ] ],
    [ "r5:2", "bb1:47b.g", "", [ "$bb" ] ],
    [ "led5:C", "bb1:tn.38", "", [ "$bb" ] ],
    [ "r6:1", "bb1:45t.c", "", [ "$bb" ] ],
    [ "r6:2", "bb1:45b.g", "", [ "$bb" ] ],
    [ "led6:C", "bb1:tn.36", "", [ "$bb" ] ],
    [ "r7:1", "bb1:43t.c", "", [ "$bb" ] ],
    [ "r7:2", "bb1:43b.g", "", [ "$bb" ] ],
    [ "led7:C", "bb1:tn.35", "", [ "$bb" ] ],
    [ "r8:1", "bb1:41t.c", "", [ "$bb" ] ],
    [ "r8:2", "bb1:41b.g", "", [ "$bb" ] ],
    [ "led8:C", "bb1:tn.33", "", [ "$bb" ] ],
    [ "bb1:43b.j", "uno:8", "green", [ "v102.16", "h-29.77" ] ],
    [ "bb1:41b.j", "uno:9", "green", [ "v92.55", "h-20.57" ] ]
  ],
  "dependencies": {}
}